<?xml version="1.0" encoding="utf-8"?>
<!-- Generator: Adobe Illustrator 18.1.1, SVG Export Plug-In . SVG Version: 6.00 Build 0)  -->
<svg version="1.1" id="Layer_1" xmlns="http://www.w3.org/2000/svg" xmlns:xlink="http://www.w3.org/1999/xlink" x="0px" y="0px"
	 viewBox="0 0 31 31" enable-background="new 0 0 31 31" xml:space="preserve">
<g>
	<g>
		<path fill="#919191" d="M0,25.5l0-20C0,2.5,2.5,0,5.5,0l20,0c3,0,5.5,2.5,5.5,5.5v20c0,3-2.5,5.5-5.5,5.5h-20
			C2.5,31,0,28.5,0,25.5z M30,5.5C30,3,28,1,25.5,1h-20C3,1,1,3,1,5.5v20C1,28,3,30,5.5,30h20c2.5,0,4.5-2,4.5-4.5V5.5z"/>
	</g>
	<path fill="#919191" d="M4.9,10.5c0-0.3,0.1-0.5,0.3-0.7c0.4-0.4,1-0.4,1.4,0l8.9,9.2l8.9-9.2c0.4-0.4,1-0.4,1.4,0
		c0.4,0.4,0.4,1,0,1.4l-9.6,10c-0.2,0.2-0.4,0.3-0.7,0.3s-0.5-0.1-0.7-0.3l-9.6-10C5,11,4.9,10.8,4.9,10.5z"/>
</g>
</svg>
