<?xml version="1.0" encoding="utf-8"?>
<!-- Generator: Adobe Illustrator 18.1.1, SVG Export Plug-In . SVG Version: 6.00 Build 0)  -->
<svg version="1.1" id="Layer_1" xmlns="http://www.w3.org/2000/svg" xmlns:xlink="http://www.w3.org/1999/xlink" x="0px" y="0px"
	 viewBox="0 0 142 31" enable-background="new 0 0 142 31" xml:space="preserve">
<path fill="#919191" d="M138.5,31H3.5C1.6,31,0,29.4,0,27.5v-24C0,1.6,1.6,0,3.5,0h135c1.9,0,3.5,1.6,3.5,3.5v24
	C142,29.4,140.4,31,138.5,31z M3.5,1C2.1,1,1,2.1,1,3.5v24C1,28.9,2.1,30,3.5,30h135c1.4,0,2.5-1.1,2.5-2.5v-24
	c0-1.4-1.1-2.5-2.5-2.5H3.5z"/>
<g enable-background="new    ">
	<path fill="#535353" d="M46.1,19.7v-9.4c0-0.1,0.1-0.2,0.2-0.3c0.1-0.1,0.2-0.1,0.4-0.1h5c0.1,0,0.2,0.1,0.3,0.2s0.1,0.2,0.1,0.4
		c0,0.1,0,0.3-0.1,0.4c-0.1,0.1-0.2,0.2-0.3,0.2h-4.3v3.6h2.2c0.1,0,0.2,0,0.3,0.1c0.1,0.1,0.1,0.2,0.1,0.4c0,0.1,0,0.2-0.1,0.3
		c-0.1,0.1-0.2,0.1-0.3,0.1h-2.2v3.6h4.3c0.1,0,0.2,0.1,0.3,0.2c0.1,0.1,0.1,0.2,0.1,0.4c0,0.1,0,0.3-0.1,0.4
		c-0.1,0.1-0.2,0.2-0.3,0.2h-5c-0.1,0-0.3,0-0.4-0.1C46.2,20,46.1,19.9,46.1,19.7z"/>
	<path fill="#535353" d="M52.6,19.6c0-0.1,0-0.2,0.1-0.3l2.4-4.3l-2.4-4.3c-0.1-0.1-0.1-0.2-0.1-0.3c0-0.2,0.1-0.3,0.2-0.4
		c0.1-0.1,0.3-0.1,0.5-0.1c0.2,0,0.4,0.1,0.5,0.4l2,3.7l2-3.7c0.1-0.3,0.3-0.4,0.5-0.4c0.2,0,0.4,0,0.5,0.1c0.1,0.1,0.2,0.2,0.2,0.4
		c0,0.1,0,0.2-0.1,0.3L56.6,15l2.4,4.3c0.1,0.1,0.1,0.2,0.1,0.3c0,0.1-0.1,0.3-0.2,0.4c-0.2,0.1-0.3,0.2-0.5,0.2
		c-0.2,0-0.3-0.1-0.4-0.4L55.8,16l-2.1,3.8c-0.1,0.3-0.3,0.4-0.4,0.4c-0.2,0-0.3-0.1-0.5-0.2C52.7,19.9,52.6,19.8,52.6,19.6z"/>
	<path fill="#535353" d="M59.6,10.4c0-0.1,0-0.3,0.1-0.4c0.1-0.1,0.2-0.2,0.3-0.2h5.7c0.1,0,0.2,0.1,0.3,0.2s0.1,0.2,0.1,0.4
		c0,0.1,0,0.3-0.1,0.4c-0.1,0.1-0.2,0.2-0.3,0.2h-2.3v8.7c0,0.1-0.1,0.2-0.2,0.3c-0.1,0.1-0.3,0.1-0.4,0.1c-0.2,0-0.3,0-0.4-0.1
		c-0.1-0.1-0.2-0.2-0.2-0.3V11H60c-0.1,0-0.2-0.1-0.3-0.2C59.6,10.7,59.6,10.6,59.6,10.4z"/>
	<path fill="#535353" d="M67.3,19.7v-9.4c0-0.1,0-0.2,0.1-0.3c0.1-0.1,0.2-0.1,0.3-0.1h2.6c0.9,0,1.7,0.2,2.3,0.7s0.9,1.2,0.9,2.1
		c0,1.5-0.7,2.4-2.1,2.7l2.1,3.9c0,0.1,0.1,0.1,0.1,0.2c0,0.1-0.1,0.3-0.2,0.4s-0.3,0.2-0.5,0.2c-0.2,0-0.4-0.2-0.5-0.5l-2.1-4.1
		h-1.6v4.1c0,0.1-0.1,0.2-0.2,0.3c-0.1,0.1-0.3,0.1-0.4,0.1c-0.2,0-0.3,0-0.4-0.1C67.3,20,67.3,19.9,67.3,19.7z M68.5,14.6h1.8
		c1.3,0,1.9-0.6,1.9-1.8c0-1.2-0.6-1.8-1.9-1.8h-1.8V14.6z"/>
	<path fill="#535353" d="M74.8,17.2v-6.9c0-0.1,0.1-0.2,0.2-0.3s0.3-0.1,0.4-0.1s0.3,0,0.4,0.1s0.2,0.2,0.2,0.3v6.9
		c0,1.3,0.6,2,1.9,2c0.6,0,1.1-0.2,1.4-0.5c0.3-0.3,0.5-0.8,0.5-1.5v-6.9c0-0.3,0.2-0.4,0.6-0.4c0.2,0,0.3,0,0.4,0.1
		c0.1,0.1,0.2,0.2,0.2,0.3v6.9c0,1.1-0.3,1.8-0.8,2.3c-0.6,0.5-1.3,0.7-2.2,0.7c-0.9,0-1.7-0.2-2.2-0.7C75.1,19,74.8,18.2,74.8,17.2
		z"/>
	<path fill="#535353" d="M82.9,19.7v-9.4c0-0.1,0-0.2,0.1-0.3c0.1-0.1,0.2-0.1,0.4-0.1h2.5c0.9,0,1.6,0.2,2.2,0.7s0.8,1.3,0.8,2.3
		v4.1c0,1.1-0.3,1.8-0.8,2.3c-0.6,0.5-1.3,0.7-2.2,0.7h-2.5c-0.2,0-0.3,0-0.4-0.1S82.9,19.9,82.9,19.7z M84.1,19.1h1.8
		c0.6,0,1-0.2,1.4-0.5c0.3-0.3,0.5-0.8,0.5-1.5V13c0-0.7-0.2-1.2-0.5-1.5C87,11.2,86.5,11,85.9,11h-1.8V19.1z"/>
	<path fill="#535353" d="M90.8,19.7v-9.4c0-0.1,0.1-0.2,0.2-0.3c0.1-0.1,0.2-0.1,0.4-0.1h5c0.1,0,0.2,0.1,0.3,0.2s0.1,0.2,0.1,0.4
		c0,0.1,0,0.3-0.1,0.4c-0.1,0.1-0.2,0.2-0.3,0.2H92v3.6h2.2c0.1,0,0.2,0,0.3,0.1c0.1,0.1,0.1,0.2,0.1,0.4c0,0.1,0,0.2-0.1,0.3
		c-0.1,0.1-0.2,0.1-0.3,0.1H92v3.6h4.3c0.1,0,0.2,0.1,0.3,0.2c0.1,0.1,0.1,0.2,0.1,0.4c0,0.1,0,0.3-0.1,0.4
		c-0.1,0.1-0.2,0.2-0.3,0.2h-5c-0.1,0-0.3,0-0.4-0.1C90.9,20,90.8,19.9,90.8,19.7z"/>
</g>
</svg>
