<?xml version="1.0" encoding="utf-8"?>
<!-- Generator: Adobe Illustrator 18.1.1, SVG Export Plug-In . SVG Version: 6.00 Build 0)  -->
<svg version="1.1" id="Layer_1" xmlns="http://www.w3.org/2000/svg" xmlns:xlink="http://www.w3.org/1999/xlink" x="0px" y="0px"
	 viewBox="0 0 142 27" enable-background="new 0 0 142 27" xml:space="preserve">
<g>
	<g>
		<path fill="#CECCCC" d="M142,24c0,1.7-1.3,3-3,3H4c-1.7,0-3-1.3-3-3V4c0-1.7,1.3-3,3-3h135c1.7,0,3,1.3,3,3V24z"/>
	</g>
	<path fill="#919191" d="M138.5,27H3.5C1.6,27,0,25.4,0,23.5v-20C0,1.6,1.6,0,3.5,0h135c1.9,0,3.5,1.6,3.5,3.5v20
		C142,25.4,140.4,27,138.5,27z M3.5,1C2.1,1,1,2.1,1,3.5v20C1,24.9,2.1,26,3.5,26h135c1.4,0,2.5-1.1,2.5-2.5v-20
		c0-1.4-1.1-2.5-2.5-2.5H3.5z"/>
</g>
<g>
	<path fill="#919191" d="M47,17.6v-7.4c0-0.1,0-0.2,0.1-0.2c0.1-0.1,0.1-0.1,0.2-0.1h2c0.7,0,1.3,0.2,1.8,0.5s0.7,0.9,0.7,1.7
		c0,1.2-0.5,1.9-1.6,2.1l1.6,3.1c0,0.1,0,0.1,0,0.2c0,0.1-0.1,0.2-0.2,0.3c-0.1,0.1-0.2,0.1-0.4,0.1c-0.2,0-0.3-0.1-0.4-0.4
		l-1.7-3.2h-1.3v3.2c0,0.1,0,0.2-0.1,0.2S47.5,18,47.4,18c-0.1,0-0.2,0-0.3-0.1S47,17.7,47,17.6z M47.9,13.6h1.4
		c1,0,1.5-0.5,1.5-1.4c0-1-0.5-1.4-1.5-1.4h-1.4V13.6z"/>
	<path fill="#919191" d="M52.9,17.6v-7.4c0-0.1,0-0.2,0.1-0.2c0.1-0.1,0.2-0.1,0.3-0.1h3.9c0.1,0,0.2,0,0.2,0.1
		c0.1,0.1,0.1,0.2,0.1,0.3c0,0.1,0,0.2-0.1,0.3c-0.1,0.1-0.1,0.1-0.2,0.1h-3.4v2.8h1.7c0.1,0,0.2,0,0.2,0.1c0.1,0.1,0.1,0.2,0.1,0.3
		c0,0.1,0,0.2-0.1,0.3c-0.1,0.1-0.1,0.1-0.2,0.1h-1.7v2.8h3.4c0.1,0,0.2,0,0.2,0.1c0.1,0.1,0.1,0.2,0.1,0.3c0,0.1,0,0.2-0.1,0.3
		c-0.1,0.1-0.1,0.1-0.2,0.1h-3.9c-0.1,0-0.2,0-0.3-0.1C53,17.8,52.9,17.7,52.9,17.6z"/>
	<path fill="#919191" d="M58.6,17.6v-7.4c0-0.2,0.2-0.3,0.5-0.3c0.2,0,0.3,0,0.4,0.1c0.1,0.1,0.2,0.2,0.3,0.4l2.7,5.4v-5.6
		c0-0.1,0-0.2,0.1-0.2c0.1-0.1,0.2-0.1,0.3-0.1c0.1,0,0.2,0,0.3,0.1c0.1,0.1,0.1,0.1,0.1,0.2v7.4c0,0.1,0,0.2-0.1,0.2
		c-0.1,0.1-0.2,0.1-0.3,0.1c-0.2,0-0.4-0.1-0.6-0.4L59.5,12v5.6c0,0.1,0,0.2-0.1,0.2S59.2,18,59,18c-0.1,0-0.2,0-0.3-0.1
		S58.6,17.7,58.6,17.6z"/>
	<path fill="#919191" d="M65,17.7v-7.4c0-0.1,0-0.2,0.1-0.2s0.2-0.1,0.3-0.1h1.9c0.7,0,1.3,0.2,1.7,0.6c0.4,0.4,0.6,1,0.6,1.8v3.2
		c0,0.8-0.2,1.4-0.6,1.8c-0.4,0.4-1,0.6-1.7,0.6h-1.9c-0.1,0-0.2,0-0.3-0.1C65,17.8,65,17.7,65,17.7z M65.9,17.1h1.4
		c0.5,0,0.8-0.1,1.1-0.4c0.3-0.3,0.4-0.7,0.4-1.2v-3.2c0-0.5-0.1-0.9-0.4-1.2s-0.6-0.4-1.1-0.4h-1.4V17.1z"/>
	<path fill="#919191" d="M71.2,17.6v-7.4c0-0.1,0-0.2,0.1-0.2c0.1-0.1,0.2-0.1,0.3-0.1h3.9c0.1,0,0.2,0,0.2,0.1
		c0.1,0.1,0.1,0.2,0.1,0.3c0,0.1,0,0.2-0.1,0.3c-0.1,0.1-0.1,0.1-0.2,0.1h-3.4v2.8h1.7c0.1,0,0.2,0,0.2,0.1c0.1,0.1,0.1,0.2,0.1,0.3
		c0,0.1,0,0.2-0.1,0.3c-0.1,0.1-0.1,0.1-0.2,0.1h-1.7v2.8h3.4c0.1,0,0.2,0,0.2,0.1c0.1,0.1,0.1,0.2,0.1,0.3c0,0.1,0,0.2-0.1,0.3
		c-0.1,0.1-0.1,0.1-0.2,0.1h-3.9c-0.1,0-0.2,0-0.3-0.1C71.2,17.8,71.2,17.7,71.2,17.6z"/>
	<path fill="#919191" d="M76.9,17.6v-7.4c0-0.1,0-0.2,0.1-0.2c0.1-0.1,0.1-0.1,0.2-0.1h2c0.7,0,1.3,0.2,1.8,0.5s0.7,0.9,0.7,1.7
		c0,1.2-0.5,1.9-1.6,2.1l1.6,3.1c0,0.1,0,0.1,0,0.2c0,0.1-0.1,0.2-0.2,0.3c-0.1,0.1-0.2,0.1-0.4,0.1c-0.2,0-0.3-0.1-0.4-0.4L79,14.4
		h-1.3v3.2c0,0.1,0,0.2-0.1,0.2S77.4,18,77.3,18c-0.1,0-0.2,0-0.3-0.1S76.9,17.7,76.9,17.6z M77.8,13.6h1.4c1,0,1.5-0.5,1.5-1.4
		c0-1-0.5-1.4-1.5-1.4h-1.4V13.6z"/>
	<path fill="#919191" d="M82.8,17.6v-7.4c0-0.1,0-0.2,0.1-0.2c0.1-0.1,0.2-0.1,0.3-0.1s0.2,0,0.3,0.1c0.1,0.1,0.1,0.1,0.1,0.2v7.4
		c0,0.1,0,0.2-0.1,0.2S83.4,18,83.3,18s-0.2,0-0.3-0.1S82.8,17.7,82.8,17.6z"/>
	<path fill="#919191" d="M85.3,17.6v-7.4c0-0.2,0.2-0.3,0.5-0.3c0.2,0,0.3,0,0.4,0.1c0.1,0.1,0.2,0.2,0.3,0.4l2.7,5.4v-5.6
		c0-0.1,0-0.2,0.1-0.2c0.1-0.1,0.2-0.1,0.3-0.1c0.1,0,0.2,0,0.3,0.1c0.1,0.1,0.1,0.1,0.1,0.2v7.4c0,0.1,0,0.2-0.1,0.2
		c-0.1,0.1-0.2,0.1-0.3,0.1c-0.2,0-0.4-0.1-0.6-0.4L86.2,12v5.6c0,0.1,0,0.2-0.1,0.2S85.9,18,85.8,18c-0.1,0-0.2,0-0.3-0.1
		S85.3,17.7,85.3,17.6z"/>
	<path fill="#919191" d="M91.6,15.6v-3.3c0-0.8,0.2-1.4,0.6-1.8c0.4-0.4,1-0.6,1.7-0.6c0.7,0,1.3,0.2,1.7,0.5
		c0.4,0.4,0.7,0.8,0.7,1.4c0,0.2,0,0.3-0.1,0.4c-0.1,0.1-0.2,0.1-0.3,0.1c-0.3,0-0.5-0.1-0.5-0.3c-0.1-0.8-0.6-1.3-1.5-1.3
		c-1,0-1.4,0.5-1.4,1.6v3.3c0,1,0.5,1.6,1.4,1.6c0.5,0,0.8-0.1,1.1-0.4c0.3-0.3,0.4-0.7,0.4-1.2v-1.1h-1.3c-0.1,0-0.2,0-0.2-0.1
		s-0.1-0.2-0.1-0.3s0-0.2,0.1-0.3s0.1-0.1,0.2-0.1H96c0.1,0,0.2,0,0.2,0.1c0.1,0.1,0.1,0.1,0.1,0.2v1.6c0,0.8-0.2,1.4-0.6,1.8
		S94.7,18,94,18s-1.3-0.2-1.7-0.6S91.6,16.5,91.6,15.6z"/>
</g>
</svg>
