<?xml version="1.0" encoding="utf-8"?>
<!-- Generator: Adobe Illustrator 18.1.1, SVG Export Plug-In . SVG Version: 6.00 Build 0)  -->
<svg version="1.1" id="Layer_1" xmlns="http://www.w3.org/2000/svg" xmlns:xlink="http://www.w3.org/1999/xlink" x="0px" y="0px"
	 viewBox="1.3 336.5 609.9 119" enable-background="new 1.3 336.5 609.9 119" xml:space="preserve">
<g>
	<path fill="#CCCCCB" d="M610.7,431.7c0,13.2-10.6,23.8-23.8,23.8H25.1c-13.2,0-23.8-10.6-23.8-23.8v-71.4
		c0-13.2,10.6-23.8,23.8-23.8h562.3c13.2,0,23.8,10.6,23.8,23.8v71.4H610.7z"/>
	<path fill="none" stroke="#919191" stroke-miterlimit="10" d="M610.7,431.7c0,13.2-10.6,23.8-23.8,23.8H25.1
		c-13.2,0-23.8-10.6-23.8-23.8v-71.4c0-13.2,10.6-23.8,23.8-23.8h562.3c13.2,0,23.8,10.6,23.8,23.8v71.4H610.7z"/>
</g>
<rect x="217.6" y="370.1" fill="none" width="177.2" height="52.3"/>
<g enable-background="new    ">
	<path fill="#525252" d="M246.5,396v-23.8c0-0.9,0.4-1.3,1.7-1.3c0.8,0,1.7,0.4,1.7,1.3V396c0,2.5,0.4,4.2,1.7,5.5
		c1.3,1.3,3,1.7,5.1,1.7c2.1,0,3.8-0.4,5.1-1.7c0.8-1.3,1.7-3,1.7-5.5v-23.8c0-0.9,0.4-1.3,1.7-1.3c0.9,0,1.7,0.4,1.7,1.3V396
		c0,3.4-0.9,6-2.6,7.7c-1.7,1.7-4.2,2.5-7.2,2.5c-3,0-5.5-0.9-7.2-2.5C247.4,402.4,246.5,399.8,246.5,396z"/>
	<path fill="#525252" d="M272.8,416v-31c0-0.4,0-0.4,0.4-0.9c0.4-0.4,0.8-0.4,1.3-0.4c0.4,0,0.9,0,0.9,0.4c0.4,0.4,0.4,0.4,0.4,0.9
		v2.1c0.4-0.9,1.3-1.7,2.5-2.5c1.3-0.9,2.5-0.9,3.8-0.9c2.5,0,4.2,0.9,6,2.5c1.7,1.7,2.5,3.8,2.5,6.4v5.1c0,2.5-0.9,4.7-2.5,6.4
		c-1.7,1.7-3.8,2.5-6,2.5c-1.3,0-2.5-0.4-3.8-1.3c-1.3-0.8-2.1-1.7-2.5-2.5V416c0,0.4,0,0.4-0.4,0.9c-0.4,0.4-0.9,0.4-1.3,0.4
		s-0.8,0-1.3-0.4C272.4,416.4,272.8,416,272.8,416z M275.8,399c0,0.9,0.4,1.7,1.7,3c1.3,1.3,2.5,1.7,4.2,1.7c1.7,0,3-0.4,4.2-1.7
		c1.3-1.3,1.7-2.5,1.7-4.2v-5.1c0-1.7-0.4-3-1.7-4.2c-1.3-1.3-2.6-1.7-4.2-1.7c-1.7,0-3,0.4-3.8,1.7c-1.3,1.3-1.7,2.6-1.7,4.2v6.4
		H275.8z"/>
	<path fill="#525252" d="M295.8,404.9v-34c0-0.4,0-0.4,0.4-0.8c0.4-0.4,0.9-0.4,1.3-0.4c0.4,0,0.8,0,1.3,0.4
		c0.4,0.4,0.4,0.4,0.4,0.8v34c0,0.4,0,0.4-0.4,0.9c-0.4,0.4-0.9,0.4-1.3,0.4c-0.4,0-0.8,0-1.3-0.4
		C296.2,405.3,295.8,405.3,295.8,404.9z"/>
	<path fill="#525252" d="M304.7,397.3v-5.1c0-2.5,0.9-4.7,2.6-6.4c1.7-1.7,3.8-2.5,6.4-2.5c2.5,0,4.7,0.8,6.4,2.5
		c1.7,1.7,2.5,3.8,2.5,6.4v5.1c0,2.5-0.9,4.7-2.5,6.4c-1.7,1.7-3.8,2.5-6.4,2.5c-2.6,0-4.2-0.9-6.4-2.5
		C305.6,402,304.7,399.8,304.7,397.3z M307.7,397.3c0,1.7,0.4,3,1.7,4.2c1.3,1.3,2.5,1.7,4.2,1.7c1.7,0,3-0.4,4.2-1.7
		c1.3-1.3,1.7-2.6,1.7-4.2v-5.1c0-1.7-0.4-3-1.7-4.2c-1.3-1.3-2.6-1.7-4.2-1.7c-1.7,0-3,0.4-4.2,1.7c-1.3,1.3-1.7,2.5-1.7,4.2V397.3
		z"/>
	<path fill="#525252" d="M326,400.2c0-2.5,0.9-4.2,3-5.1c1.7-0.9,4.7-1.3,8.1-1.3h2.5v-1.3c0-1.7-0.4-3.4-1.3-4.2
		c-0.8-1.3-2.1-1.7-4.2-1.7c-1.3,0-2.5,0.4-3.4,0.8c-0.9,0.4-1.7,0-1.7,0c-0.4,0-0.9,0-0.9-0.4c-0.4-0.4-0.4-0.9-0.4-1.3
		c0-0.4,0.9-1.3,2.1-1.7c1.3-0.4,3-0.8,4.2-0.8c3,0,5.1,0.8,6.4,2.5c1.3,1.7,2.1,3.8,2.1,6.4v12.3c0,0.4,0,0.8-0.4,0.8
		c-0.4,0.4-0.8,0.4-1.3,0.4c-0.4,0-0.8,0-0.8-0.4c-0.4-0.4-0.4-0.4-0.4-0.8v-2.1c-2.1,2.5-4.7,3.8-7.2,3.8c-1.7,0-3.4-0.4-4.7-1.7
		C326.8,403.7,326,402.4,326,400.2z M329.4,399.8c0,1.3,0.4,2.1,1.3,3c0.8,0.9,1.7,0.9,3,0.9c1.3,0,3-0.4,4.2-1.7
		c1.3-1.3,2.1-2.1,2.1-3.4v-3h-2.1c-1.3,0-2.1,0-3.4,0c-0.8,0-1.7,0.4-2.5,0.4c-0.8,0-1.7,0.8-2.1,1.3
		C329.4,397.7,329.4,399,329.4,399.8z"/>
	<path fill="#525252" d="M347.7,397.3v-5.1c0-2.5,0.8-4.7,2.5-6.4s3.8-2.5,6-2.5c1.3,0,2.5,0.4,3.8,0.8c1.3,0.9,1.7,1.7,2.6,2.6
		v-16.2c0-0.4,0-0.4,0.4-0.8c0.4-0.4,0.8-0.4,1.3-0.4s0.9,0,1.3,0.4c0,0.8,0,0.8,0,1.3v34c0,0.4,0,0.4-0.4,0.9
		c-0.4,0.4-0.4,0.4-0.9,0.4c-0.4,0-0.8,0-0.8-0.4c-0.4-0.4-0.4-0.4-0.4-0.9v-2.1c-0.4,0.9-1.3,1.7-2.5,2.5c-1.3,0.9-2.6,1.3-3.8,1.3
		c-2.1,0-4.2-0.8-6-2.5C348.5,402,347.7,399.8,347.7,397.3z M350.6,397.3c0,1.7,0.4,3,1.7,4.2c1.3,1.3,2.5,1.7,4.2,1.7
		s3-0.4,3.8-1.7c0.9-1.3,1.7-2.1,1.7-3v-6.8c0-1.7-0.4-3.4-1.7-4.2c-1.3-1.3-2.6-1.7-3.8-1.7c-1.7,0-3,0.4-4.2,1.7
		c-1.3,1.3-1.7,2.5-1.7,4.2V397.3z"/>
</g>
</svg>
